%YAML 1.1
%TAG !u! tag:unity3d.com,2011:
--- !u!114 &11400000
MonoBehaviour:
  m_ObjectHideFlags: 0
  m_CorrespondingSourceObject: {fileID: 0}
  m_PrefabInstance: {fileID: 0}
  m_PrefabAsset: {fileID: 0}
  m_GameObject: {fileID: 0}
  m_Enabled: 1
  m_EditorHideFlags: 0
  m_Script: {fileID: 11500000, guid: 76e6d9aa469340a49acc9e05731c543f, type: 3}
  m_Name: Knife
  m_EditorClassIdentifier: 
  icon: {fileID: 21300000, guid: 3aba77ad6a31eb5459f8fb3c2f7a9c32, type: 3}
  thisObject: {fileID: 8672297533800666919, guid: 732763c4848b2804289db9ccdc23f30d, type: 3}
  Name: Knife
  stackSize: 1
  weightInGrams: 3000
  LootTime: 0
  Description: Sharp boi
