%YAML 1.1
%TAG !u! tag:unity3d.com,2011:
--- !u!114 &11400000
MonoBehaviour:
  m_ObjectHideFlags: 0
  m_CorrespondingSourceObject: {fileID: 0}
  m_PrefabInstance: {fileID: 0}
  m_PrefabAsset: {fileID: 0}
  m_GameObject: {fileID: 0}
  m_Enabled: 1
  m_EditorHideFlags: 0
  m_Script: {fileID: 11500000, guid: 8c32db35977a1444db21a1e4649feaab, type: 3}
  m_Name: Bow
  m_EditorClassIdentifier: 
  icon: {fileID: 0}
  thisObject: {fileID: 0}
  Name: Bow of Light
  stackSize: 0
  weightInGrams: 0
  LootTime: 0
  Rarity: {r: 0, g: 0.582201, b: 0.9811321, a: 1}
  isRangedWeapon: 1
  hasTrajectory: 1
  Damage: 50
  TimeBetweenShooting: 0
  BulletSpreadInDeg: 45
  BulletSpreadADS: 10
  BulletSpreadSprint: 60
  Range: 3
  ReloadTime: 0
  TimeBetweenShots: 2
  ADSTime: 5
  ClipSize: 1
  BulletsInClip: 1
  BulletsPerBurst: 0
  AutomaticFire: 0
  GunSFX: {fileID: 0}
  ReloadSFX: {fileID: 0}
  MyArmorType: 0
