%YAML 1.1
%TAG !u! tag:unity3d.com,2011:
--- !u!114 &11400000
MonoBehaviour:
  m_ObjectHideFlags: 0
  m_CorrespondingSourceObject: {fileID: 0}
  m_PrefabInstance: {fileID: 0}
  m_PrefabAsset: {fileID: 0}
  m_GameObject: {fileID: 0}
  m_Enabled: 1
  m_EditorHideFlags: 0
  m_Script: {fileID: 11500000, guid: f2c8df025ce4fc541a83963ab2bf066e, type: 3}
  m_Name: Unfinished Arrow
  m_EditorClassIdentifier: 
  recipe:
  - {fileID: 11400000, guid: 30e921022d9ea6946ac97b6b24844f00, type: 2}
  outputObject: {fileID: 11400000, guid: 703063922fcb9c54f9c9d1869d6057ec, type: 2}
