%YAML 1.1
%TAG !u! tag:unity3d.com,2011:
--- !u!114 &11400000
MonoBehaviour:
  m_ObjectHideFlags: 0
  m_CorrespondingSourceObject: {fileID: 0}
  m_PrefabInstance: {fileID: 0}
  m_PrefabAsset: {fileID: 0}
  m_GameObject: {fileID: 0}
  m_Enabled: 1
  m_EditorHideFlags: 0
  m_Script: {fileID: 11500000, guid: 79ec391b2a3fc384ab0c8942531aaadc, type: 3}
  m_Name: Legs
  m_EditorClassIdentifier: 
  icon: {fileID: 21300000, guid: 62a4e72eaf6f0a74381fabe86226cbb4, type: 3}
  thisObject: {fileID: 0}
  Name: Pants
  stackSize: 0
  weightInGrams: 10000
  LootTime: 0
  strength: 25
  stamina: 0
  armorType: 2
